Stanford Open Policing Project Tutorial
…
At first glance, we see there are far more stops of black drivers than any other race. About two-thirds of stops in our dataset were of black drivers! This stat on its own, though, doesnt actually say much. Well return to this more rigorously later on.

How about counting how many stops by year and race?

stops %>% 
  # notice that you can also mutate `date` *within* the count funciton
  count(year = year(date), subject_race)

## # A tibble: 24 x 3
##     year subject_race                n
##    <dbl> <fct>                   <int>
##  1  2014 asian/pacific islander   7265
##  2  2014 black                  132871
##  3  2014 hispanic                22904
##  4  2014 white                   51563
##  5  2014 other                    1123
##  6  2014 unknown                  1497
##  7  2015 asian/pacific islander   8580
##  8  2015 black                  181193
##  9  2015 hispanic                29935
## 10  2015 white                   60051
## #  with 14 more rows
…
However, what if hit rates vary by police district? If the bar for stopping people, irrespective of race, is lower in certain police districts, and black individuals are more likely to live in neighborhoods in those districts, then the observed disparities may not reflect bias.

Adjusting for location

Now lets compute hit rates by race and district. Name your result hit_rates.

hit_rates <- 
  stops %>% 
  filter(search_conducted) %>% 
  group_by(subject_race, district) %>% 
  summarize(hit_rate = mean(contraband_found, na.rm = T))

hit_rates

## # A tibble: 109 x 3
## # Groups:   subject_race [6]
##    subject_race           district hit_rate
##    <fct>                  <chr>       <dbl>
##  1 asian/pacific islander 01          0.167
##  2 asian/pacific islander 02          0.5  
##  3 asian/pacific islander 03          0.4  
##  4 asian/pacific islander 06          0.333
##  5 asian/pacific islander 07          0    
##  6 asian/pacific islander 08          0    
##  7 asian/pacific islander 09          0.667
##  8 asian/pacific islander 12          0.6  
##  9 asian/pacific islander 14          0.167
## 10 asian/pacific islander 15          0    
## #  with 99 more rows

Again, this is too many hit rates to compare in one table. To plot the hit rates of black vs.white drivers and of Hispanic vs.white drivers, we need to reshape our table to have each row containing a district, a minority race, minority hit rate in that district, and white hit rate in that district. Well walk you through the code below that reshapes the data for us.

# Reshape table to show hit rates of minorities vs white drivers
hit_rates <-
  hit_rates %>% 
  filter(subject_race %in% c("black", "white", "hispanic")) %>% 
  spread(subject_race, hit_rate, fill = 0) %>% 
  rename(white_hit_rate = white) %>% 
  gather(minority_race, minority_hit_rate, c(black, hispanic)) %>%
  arrange(district)

hit_rates

## # A tibble: 44 x 4
##    district white_hit_rate minority_race minority_hit_rate
##    <chr>             <dbl> <chr>                     <dbl>
##  1 01                0.611 black                     0.179
##  2 01                0.611 hispanic                  0.5  
##  3 02                0.384 black                     0.357
##  4 02                0.384 hispanic                  0.247
##  5 03                0.419 black                     0.258
##  6 03                0.419 hispanic                  0.424
##  7 05                0.2   black                     0.286
##  8 05                0.2   hispanic                  0    
##  9 06                0.304 black                     0.289
## 10 06                0.304 hispanic                  0.444
## #  with 34 more rows
…
Next, lets take a look at what addresses are usually written in for stops in this district.

# Hint: Note that districts in our dataset are encoded as characters, 
# so 77 is actually "77"

stops %>% 
  filter(district == "77") %>% 
  count(location, sort = T)

## # A tibble: 84 x 2
##    location                            n
##    <chr>                           <int>
##  1 0 BLOCK PIA WAY                   245
##  2 8800 BLOCK ESSINGTON AVE IA WAY   212
##  3 8800 BLOCK ESSINGTON AVE          150
##  4 98 PIA WAY                         84
##  5 1 PIA WAY                          44
##  6 DEPARTURE RD RAMP                  24
##  7 DEPARTURE ROAD                     17
##  8 PIA DEPARTURE ROAD                 16
##  9 ARRIVAL D                          11
## 10 CELL PHONE LOT                     11
## #  with 74 more rows
…
